{
    "providers": [
        "Illuminate\\Foundation\\Providers\\ArtisanServiceProvider",
        "Illuminate\\Cache\\CacheServiceProvider",
        "Illuminate\\Session\\CommandsServiceProvider",
        "Illuminate\\Foundation\\Providers\\ConsoleSupportServiceProvider",
        "Illuminate\\Routing\\ControllerServiceProvider",
        "Illuminate\\Cookie\\CookieServiceProvider",
        "Illuminate\\Encryption\\EncryptionServiceProvider",
        "Illuminate\\Hashing\\HashServiceProvider",
        "Illuminate\\Log\\LogServiceProvider",
        "Illuminate\\Database\\MigrationServiceProvider",
        "Illuminate\\Foundation\\Providers\\OptimizeServiceProvider",
        "Illuminate\\Pagination\\PaginationServiceProvider",
        "Illuminate\\Queue\\QueueServiceProvider",
        "Illuminate\\Remote\\RemoteServiceProvider",
        "Illuminate\\Database\\SeedServiceProvider",
        "Illuminate\\Foundation\\Providers\\ServerServiceProvider",
        "Illuminate\\Session\\SessionServiceProvider",
        "Illuminate\\Validation\\ValidationServiceProvider",
        "Illuminate\\View\\ViewServiceProvider",
        "October\\Rain\\Cron\\CronServiceProvider",
        "October\\Rain\\Database\\DatabaseServiceProvider",
        "October\\Rain\\Filesystem\\FilesystemServiceProvider",
        "October\\Rain\\Config\\ConfigServiceProvider",
        "October\\Rain\\Html\\HtmlServiceProvider",
        "October\\Rain\\Network\\NetworkServiceProvider",
        "October\\Rain\\Translation\\TranslationServiceProvider",
        "October\\Rain\\Support\\Scaffold\\ScaffoldServiceProvider",
        "October\\Rain\\Support\\FlashServiceProvider",
        "October\\Rain\\Mail\\MailServiceProvider",
        "Indatus\\Dispatcher\\ServiceProvider",
        "System\\ServiceProvider"
    ],
    "eager": [
        "Illuminate\\Cookie\\CookieServiceProvider",
        "Illuminate\\Encryption\\EncryptionServiceProvider",
        "Illuminate\\Session\\SessionServiceProvider",
        "Illuminate\\View\\ViewServiceProvider",
        "October\\Rain\\Cron\\CronServiceProvider",
        "October\\Rain\\Database\\DatabaseServiceProvider",
        "October\\Rain\\Filesystem\\FilesystemServiceProvider",
        "October\\Rain\\Config\\ConfigServiceProvider",
        "October\\Rain\\Network\\NetworkServiceProvider",
        "October\\Rain\\Support\\Scaffold\\ScaffoldServiceProvider",
        "October\\Rain\\Support\\FlashServiceProvider",
        "System\\ServiceProvider"
    ],
    "deferred": {
        "artisan": "Illuminate\\Foundation\\Providers\\ArtisanServiceProvider",
        "command.changes": "Illuminate\\Foundation\\Providers\\ArtisanServiceProvider",
        "command.environment": "Illuminate\\Foundation\\Providers\\ArtisanServiceProvider",
        "cache": "Illuminate\\Cache\\CacheServiceProvider",
        "cache.store": "Illuminate\\Cache\\CacheServiceProvider",
        "memcached.connector": "Illuminate\\Cache\\CacheServiceProvider",
        "command.cache.clear": "Illuminate\\Cache\\CacheServiceProvider",
        "command.cache.table": "Illuminate\\Cache\\CacheServiceProvider",
        "command.session.database": "Illuminate\\Session\\CommandsServiceProvider",
        "command.command.make": "Illuminate\\Foundation\\Providers\\ConsoleSupportServiceProvider",
        "composer": "Illuminate\\Foundation\\Providers\\ConsoleSupportServiceProvider",
        "command.dump-autoload": "Illuminate\\Foundation\\Providers\\ConsoleSupportServiceProvider",
        "command.key.generate": "Illuminate\\Foundation\\Providers\\ConsoleSupportServiceProvider",
        "command.up": "Illuminate\\Foundation\\Providers\\ConsoleSupportServiceProvider",
        "command.down": "Illuminate\\Foundation\\Providers\\ConsoleSupportServiceProvider",
        "command.optimize": "Illuminate\\Foundation\\Providers\\OptimizeServiceProvider",
        "command.clear-compiled": "Illuminate\\Foundation\\Providers\\OptimizeServiceProvider",
        "asset.publisher": "Illuminate\\Foundation\\Providers\\ConsoleSupportServiceProvider",
        "command.asset.publish": "Illuminate\\Foundation\\Providers\\ConsoleSupportServiceProvider",
        "config.publisher": "Illuminate\\Foundation\\Providers\\ConsoleSupportServiceProvider",
        "command.config.publish": "Illuminate\\Foundation\\Providers\\ConsoleSupportServiceProvider",
        "view.publisher": "Illuminate\\Foundation\\Providers\\ConsoleSupportServiceProvider",
        "command.view.publish": "Illuminate\\Foundation\\Providers\\ConsoleSupportServiceProvider",
        "migration.publisher": "Illuminate\\Foundation\\Providers\\ConsoleSupportServiceProvider",
        "command.migrate.publish": "Illuminate\\Foundation\\Providers\\ConsoleSupportServiceProvider",
        "command.routes": "Illuminate\\Foundation\\Providers\\ConsoleSupportServiceProvider",
        "command.serve": "Illuminate\\Foundation\\Providers\\ServerServiceProvider",
        "command.tinker": "Illuminate\\Foundation\\Providers\\ConsoleSupportServiceProvider",
        "command.queue.failed": "Illuminate\\Foundation\\Providers\\ConsoleSupportServiceProvider",
        "command.queue.retry": "Illuminate\\Foundation\\Providers\\ConsoleSupportServiceProvider",
        "command.queue.forget": "Illuminate\\Foundation\\Providers\\ConsoleSupportServiceProvider",
        "command.queue.flush": "Illuminate\\Foundation\\Providers\\ConsoleSupportServiceProvider",
        "command.queue.failed-table": "Illuminate\\Foundation\\Providers\\ConsoleSupportServiceProvider",
        "command.controller.make": "Illuminate\\Routing\\ControllerServiceProvider",
        "hash": "Illuminate\\Hashing\\HashServiceProvider",
        "log": "Illuminate\\Log\\LogServiceProvider",
        "migrator": "Illuminate\\Database\\MigrationServiceProvider",
        "migration.repository": "Illuminate\\Database\\MigrationServiceProvider",
        "command.migrate": "Illuminate\\Database\\MigrationServiceProvider",
        "command.migrate.rollback": "Illuminate\\Database\\MigrationServiceProvider",
        "command.migrate.reset": "Illuminate\\Database\\MigrationServiceProvider",
        "command.migrate.refresh": "Illuminate\\Database\\MigrationServiceProvider",
        "command.migrate.install": "Illuminate\\Database\\MigrationServiceProvider",
        "migration.creator": "Illuminate\\Database\\MigrationServiceProvider",
        "command.migrate.make": "Illuminate\\Database\\MigrationServiceProvider",
        "paginator": "Illuminate\\Pagination\\PaginationServiceProvider",
        "queue": "Illuminate\\Queue\\QueueServiceProvider",
        "queue.worker": "Illuminate\\Queue\\QueueServiceProvider",
        "queue.listener": "Illuminate\\Queue\\QueueServiceProvider",
        "queue.failer": "Illuminate\\Queue\\QueueServiceProvider",
        "command.queue.work": "Illuminate\\Queue\\QueueServiceProvider",
        "command.queue.listen": "Illuminate\\Queue\\QueueServiceProvider",
        "command.queue.restart": "Illuminate\\Queue\\QueueServiceProvider",
        "command.queue.subscribe": "Illuminate\\Queue\\QueueServiceProvider",
        "remote": "Illuminate\\Remote\\RemoteServiceProvider",
        "seeder": "Illuminate\\Database\\SeedServiceProvider",
        "command.seed": "Illuminate\\Database\\SeedServiceProvider",
        "validator": "Illuminate\\Validation\\ValidationServiceProvider",
        "validation.presence": "Illuminate\\Validation\\ValidationServiceProvider",
        "html": "October\\Rain\\Html\\HtmlServiceProvider",
        "form": "October\\Rain\\Html\\HtmlServiceProvider",
        "block": "October\\Rain\\Html\\HtmlServiceProvider",
        "translator": "October\\Rain\\Translation\\TranslationServiceProvider",
        "translation.loader": "October\\Rain\\Translation\\TranslationServiceProvider",
        "mailer": "October\\Rain\\Mail\\MailServiceProvider",
        "swift.mailer": "October\\Rain\\Mail\\MailServiceProvider",
        "swift.transport": "October\\Rain\\Mail\\MailServiceProvider",
        "command.scheduled.summary": "Indatus\\Dispatcher\\ServiceProvider",
        "command.scheduled.make": "Indatus\\Dispatcher\\ServiceProvider",
        "command.scheduled.run": "Indatus\\Dispatcher\\ServiceProvider"
    },
    "when": {
        "Illuminate\\Foundation\\Providers\\ArtisanServiceProvider": [

        ],
        "Illuminate\\Cache\\CacheServiceProvider": [

        ],
        "Illuminate\\Session\\CommandsServiceProvider": [

        ],
        "Illuminate\\Foundation\\Providers\\ConsoleSupportServiceProvider": [

        ],
        "Illuminate\\Routing\\ControllerServiceProvider": [

        ],
        "Illuminate\\Hashing\\HashServiceProvider": [

        ],
        "Illuminate\\Log\\LogServiceProvider": [

        ],
        "Illuminate\\Database\\MigrationServiceProvider": [

        ],
        "Illuminate\\Foundation\\Providers\\OptimizeServiceProvider": [

        ],
        "Illuminate\\Pagination\\PaginationServiceProvider": [

        ],
        "Illuminate\\Queue\\QueueServiceProvider": [

        ],
        "Illuminate\\Remote\\RemoteServiceProvider": [

        ],
        "Illuminate\\Database\\SeedServiceProvider": [

        ],
        "Illuminate\\Foundation\\Providers\\ServerServiceProvider": [

        ],
        "Illuminate\\Validation\\ValidationServiceProvider": [

        ],
        "October\\Rain\\Html\\HtmlServiceProvider": [

        ],
        "October\\Rain\\Translation\\TranslationServiceProvider": [

        ],
        "October\\Rain\\Mail\\MailServiceProvider": [

        ],
        "Indatus\\Dispatcher\\ServiceProvider": [

        ]
    }
}